<?xml version="1.0" encoding="utf-8"?>
<!-- Generator: Adobe Illustrator 22.0.1, SVG Export Plug-In . SVG Version: 6.00 Build 0)  -->
<svg version="1.1" id="Layer_1" xmlns="http://www.w3.org/2000/svg" xmlns:xlink="http://www.w3.org/1999/xlink" x="0px" y="0px"
	 viewBox="0 0 29.8 30" style="enable-background:new 0 0 29.8 30;" xml:space="preserve">
<style type="text/css">
	.st0{fill:none;stroke:#9FC93B;stroke-width:3.7573;stroke-linecap:round;stroke-miterlimit:10;}
</style>
<line class="st0" x1="2" y1="15" x2="27.8" y2="15"/>
<line class="st0" x1="14.9" y1="27.9" x2="14.9" y2="2.1"/>
</svg>
